digraph UML {
	graph [rankdir = RL];
	"Game" [shape = box];
	"TaskList" [shape = box];
	"TaskIterator" [shape = box];
	"Input" [shape = box];
	"Draw" [shape = box];
	"Task" [shape = box];
		"Ship" [shape = box];
		"Bomb" [shape = box];
		"Sea" [shape = box];
			"TitleSea" [shape = box];
		"Effect" [shape = box];
			"CrashEffect" [shape = box];
			"ShipCrashEffect" [shape = box];
			"MessageEffect" [shape = box];
		"Submarine" [shape = box];
			"NormalSubmarine" [shape = box];
			"FastSubmarine" [shape = box];
			"ItemSubmarine" [shape = box];
			"ThreeWaySbumarine" [shape = box];
			"TitleSubmarine" [shape = box];
		"Scene" [shape = box];
			"CreditScene" [shape = box];
			"GameOverScene" [shape = box];
			"InformationScene" [shape = box];
			"NameInputScene" [shape = box];
			"PauseScene" [shape = box];
			"RankingScene" [shape = box];
			"TitleScene" [shape = box];
		"Missile" [shape = box];
			"StraightMissile" [shape = box];
			"TiltMissile" [shape = box];
		"Item" [shape = box];
			"StockItem" [shape = box];
			"SpeedItem" [shape = box];

	"Game" -> "Input" [arrowhead = odiamond];
	"Game" -> "Draw" [arrowhead = odiamond];
	"Game" -> "TaskList" [arrowhead = odiamond];
	"TaskIterator" -> "TaskList" [arrowhead = none];
	"TaskIterator" -> "Task" [arrowhead = none];
	"TaskList" -> "Task" [arrowhead = odiamond];
	"Ship" -> "Task" [arrowhead = onormal];
	"Bomb" -> "Task" [arrowhead = onormal];
	"Sea" -> "Task" [arrowhead = onormal];
		"TitleSea" -> "Sea" [arrowhead = onormal];
	"Effect" -> "Task" [arrowhead = onormal];
		"CrashEffect" -> "Effect" [arrowhead = onormal];
		"ShipCrashEffect" -> "Effect" [arrowhead = onormal];
		"MessageEffect" -> "Effect" [arrowhead = onormal];
	"Submarine" -> "Task" [arrowhead = onormal];
		"NormalSubmarine" -> "Submarine" [arrowhead = onormal];
		"FastSubmarine" -> "Submarine" [arrowhead = onormal];
		"ItemSubmarine" -> "Submarine" [arrowhead = onormal];
		"ThreeWaySbumarine" -> "Submarine" [arrowhead = onormal];
		"TitleSubmarine" -> "Submarine" [arrowhead = onormal];
	"Scene" -> "Task" [arrowhead = onormal];
		"CreditScene" -> "Scene" [arrowhead = onormal];
		"GameOverScene" -> "Scene" [arrowhead = onormal];
		"InformationScene" -> "Scene" [arrowhead = onormal];
		"NameInputScene" -> "Scene" [arrowhead = onormal];
		"PauseScene" -> "Scene" [arrowhead = onormal];
		"RankingScene" -> "Scene" [arrowhead = onormal];
		"TitleScene" -> "Scene" [arrowhead = onormal];
	"Missile" -> "Task" [arrowhead = onormal];
		"StraightMissile" -> "Missile" [arrowhead = onormal];
		"TiltMissile" -> "Missile" [arrowhead = onormal];
	"Item" -> "Task" [arrowhead = onormal];
		"StockItem" -> "Item" [arrowhead = onormal];
		"SpeedItem" -> "Item" [arrowhead = onormal];
}
